Attendance and Graduation Rates – STA 9750 2024 Submission Material
…
Attendance Analysis

Code

#Attendance Analysis
# Identifying the top five worst and best districts in NYC for attendance
attendance_summary <- Attendance_ALL %>%
  group_by(District) %>%
  summarise(Average_Attendance = mean(`% Attendance`, na.rm = TRUE)) %>%
  arrange(desc(Average_Attendance))

print(attendance_summary)

# A tibble: 33 × 2
   District Average_Attendance
      <dbl>              <dbl>
 1       26               89.4
 2       24               88.9
 3        4               88.9
 4       28               88.2
 5       22               88.1
 6       30               87.0
 7       11               86.9
 8       13               86.6
 9       31               86.6
10       10               86.4
# ℹ 23 more rows
…
Graduation District Map

Code

#Now graduation top 5 and bottom 5 districts
graduation_summary <- Graduation_Rates_All %>%
  group_by(District) %>%
  summarise(Average_Graduation = mean(`% Grads`, na.rm = TRUE)) %>%
  arrange(desc(Average_Graduation))

# View the summary
print(graduation_summary)

# A tibble: 32 × 2
   District Average_Graduation
      <dbl>              <dbl>
 1       26               92.2
 2       13               90.2
 3       22               88.5
 4        4               87.0
 5       28               86.6
 6       31               85.5
 7       30               85.4
 8       14               85.2
 9        3               85.0
10       24               83.0
# ℹ 22 more rows
…
