Transit Data Analysis – STA 9750 2024 Submission Material
…
What is the agency with the highest VRM growth from 2019 to 2022 :

USAGE |>
  mutate(year = year(as.Date(month, format = "%Y-%m-%d"))) |> 
  filter(year %in% c(2019, 2020)) |>                           
  group_by(Agency, year) |>                                   
  summarize(total_VRM = sum(VRM, na.rm = TRUE)) |>             
  spread(key = year, value = total_VRM) |>                    
  mutate(growth = (`2020` - `2019`) / `2019` * 100) |>        
  arrange(desc(growth))

`summarise()` has grouped output by 'Agency'. You can override using the
`.groups` argument.

# A tibble: 518 × 4
# Groups:   Agency [518]
   Agency                                                   `2019` `2020` growth
   <chr>                                                     <dbl>  <dbl>  <dbl>
 1 Golden Crescent Regional Planning Commission             3.43e5 9.27e5  171. 
 2 City of Arlington                                        9.00e5 2.29e6  154. 
 3 San Joaquin Council                                      1.86e6 3.03e6   62.9
 4 Lakeland Area Mass Transit District                      2.88e6 4.28e6   48.7
 5 City of Grand Forks                                      3.63e5 5.34e5   46.8
 6 San Bernardino County Transportation Authority           7.53e5 1.06e6   40.9
 7 Northeast Illinois Regional Commuter Railroad Corporati… 4.46e7 6.13e7   37.5
 8 County of Douglas                                        4.23e5 5.43e5   28.6
 9 Cache Valley Transit District                            9.46e5 1.18e6   25.0
10 Kings County Area Public Transit Agency                  8.03e5 9.85e5   22.7
# ℹ 508 more rows
…
