IMDB Analysis – STA 9750 2024 Submission Material
…
print(genre_popularity)

# A tibble: 140 × 3
   Decade genres SuccessCount
    <dbl> <chr>         <int>
 1   1980 Action         1167
 2   1990 Action         3188
 3   2000 Action         6646
 4   2010 Action        15025
 5   2020 Action         1388
 6   1980 Adult            17
 7   1990 Adult            32
 8   2000 Adult            15
 9   2010 Adult             5
10   2020 Adult             2
# ℹ 130 more rows
…
